{
    "migIndex": 1,
    "data": [
        {
            "path": "src/assets/fonts/Circle-Regular.otf",
            "sha1": "78beafa8039286bbeba0b971f5fd5ddb520144c8"
        },
        {
            "path": "src/assets/fonts/TT-Ricordi-Marmo-Trial-Regular.ttf",
            "sha1": "36690863233a46bdd9a72e3938157aafa4d49a1e"
        }
    ]
}
